unitsize(1mm);
real h;
real l;
l=10;
h=3;
filldraw(box((0,0),(6*l,h)), gray);
filldraw(box((6*l,0),(14*l,h)), black);
draw(box((14*l,0),(16*l,h)));
draw((0,2*h)--(16*l,2*h), Arrows);
label("$L=16$", (8*l,2*h), N);
draw((0,-h)--(6*l,-h),Arrows);
label("$\begin{array}{c} a_0=6 \\ v_0=3\end{array}$",(3*l, -h), S);
draw((6*l,-h)--(14*l,-h),Arrows);
label("$\begin{array}{c} a_1=8 \\ v_1=5\end{array}$",(10*l, -h), S);
